--------------------------------------------------------------------------
Primary job  terminated normally, but 1 process returned
a non-zero exit code. Per user-direction, the job has been aborted.
--------------------------------------------------------------------------
--------------------------------------------------------------------------
mpirun noticed that process rank 93 with PID 10308 on node 10.128.0.66 exited on signal 9 (Killed).
--------------------------------------------------------------------------
