--------------------------------------------------------------------------
Primary job  terminated normally, but 1 process returned
a non-zero exit code. Per user-direction, the job has been aborted.
--------------------------------------------------------------------------
--------------------------------------------------------------------------
mpirun noticed that process rank 255 with PID 10506 on node 10.128.0.86 exited on signal 9 (Killed).
--------------------------------------------------------------------------
